topics.utf8
…
Modelado LDA

LDA_Result <- LDA(DTM_lema, k = 3, control = list(seed = 123))
LDA_Result

## A LDA_VEM topic model with 3 topics.

LDA_Result_tidy <- tidy(LDA_Result, matrix = "beta")
LDA_Result_tidy %>%
  mutate(topic = paste0("topic", topic)) %>%
  spread(topic, beta) %>% 
  arrange(desc(topic1))

## # A tibble: 3,447 x 4
##    term         topic1       topic2   topic3
##    <chr>         <dbl>        <dbl>    <dbl>
##  1 prueba      0.0132  0.0000000754 0.000756
##  2 persona     0.0110  0.00728      0.0135  
##  3 coronavirus 0.0102  0.00236      0.00818 
##  4 salud       0.0101  0.00346      0.00445 
##  5 Viteri      0.0100  0.00233      0.00318 
##  6 Guayaquil   0.00987 0.00468      0.00581 
##  7 caso        0.00939 0.00404      0.0105  
##  8 pas        0.00837 0.00655      0.00940 
##  9 covid-19    0.00683 0.00254      0.00381 
## 10 alcaldesa   0.00679 0.00149      0.00328 
## # ... with 3,437 more rows
…
